{
  "pokemon": [
    {
      "id": "1",
      "name": "faris-0",
      "type": "electric",
      "release": 1
    },
    {
      "id": "2",
      "name": "rijal-377",
      "type": "electric",
      "release": 15
    },
    {
      "id": "3",
      "name": "pikachu",
      "type": "metal",
      "release": 0
    },
    {
      "name": "bulbasaur",
      "type": "metal",
      "id": "5eaf94a386ee3393e54b4ad6fbec6132",
      "release": 0
    },
    {
      "name": "venusaur",
      "type": "power",
      "id": "796750245aac418163b3001067d4d4f9",
      "release": 0
    },
    {
      "id": "40a8d7b9ec764dea4be543555f97be64",
      "name": "venusaur",
      "type": "power",
      "release": 0
    },
    {
      "id": "9eada817958c887504f90ad42abbcee7",
      "name": "venusaur",
      "type": "power",
      "release": 0
    },
    {
      "id": "49c1255e57201abb03cab4ae3dd3aef1",
      "name": "venusaur",
      "type": "power",
      "release": 0
    },
    {
      "id": "40f312fdb8d39b26abc4d227b2545cb5",
      "name": "venusaur",
      "type": "power",
      "release": 0
    }
  ]
}